Number of Datapoints : 490449 NumClusters : 100 
		Cluster 1 Points 3679 
		Cluster 2 Points 5004 
		Cluster 3 Points 4583 
		Cluster 4 Points 2471 
		Cluster 5 Points 1951 
		Cluster 6 Points 3036 
		Cluster 7 Points 4778 
		Cluster 8 Points 5510 
		Cluster 9 Points 2515 
		Cluster 10 Points 3983 
		Cluster 11 Points 8207 
		Cluster 12 Points 4591 
		Cluster 13 Points 5163 
		Cluster 14 Points 2927 
		Cluster 15 Points 1795 
		Cluster 16 Points 3523 
		Cluster 17 Points 2308 
		Cluster 18 Points 7756 
		Cluster 19 Points 3586 
		Cluster 20 Points 5392 
		Cluster 21 Points 5877 
		Cluster 22 Points 8205 
		Cluster 23 Points 24246 
		Cluster 24 Points 3281 
		Cluster 25 Points 4648 
		Cluster 26 Points 6388 
		Cluster 27 Points 2385 
		Cluster 28 Points 3184 
		Cluster 29 Points 5293 
		Cluster 30 Points 5517 
		Cluster 31 Points 3252 
		Cluster 32 Points 5209 
		Cluster 33 Points 3593 
		Cluster 34 Points 3881 
		Cluster 35 Points 1914 
		Cluster 36 Points 3604 
		Cluster 37 Points 2172 
		Cluster 38 Points 8249 
		Cluster 39 Points 8560 
		Cluster 40 Points 2467 
		Cluster 41 Points 3803 
		Cluster 42 Points 5300 
		Cluster 43 Points 4500 
		Cluster 44 Points 4267 
		Cluster 45 Points 4717 
		Cluster 46 Points 4529 
		Cluster 47 Points 5404 
		Cluster 48 Points 9258 
		Cluster 49 Points 12455 
		Cluster 50 Points 2237 
		Cluster 51 Points 3458 
		Cluster 52 Points 16282 
		Cluster 53 Points 2678 
		Cluster 54 Points 2863 
		Cluster 55 Points 2767 
		Cluster 56 Points 3669 
		Cluster 57 Points 2782 
		Cluster 58 Points 6925 
		Cluster 59 Points 6990 
		Cluster 60 Points 4715 
		Cluster 61 Points 2083 
		Cluster 62 Points 2185 
		Cluster 63 Points 5071 
		Cluster 64 Points 5813 
		Cluster 65 Points 2510 
		Cluster 66 Points 6083 
		Cluster 67 Points 5679 
		Cluster 68 Points 3041 
		Cluster 69 Points 5844 
		Cluster 70 Points 3559 
		Cluster 71 Points 3743 
		Cluster 72 Points 10471 
		Cluster 73 Points 2432 
		Cluster 74 Points 7154 
		Cluster 75 Points 4265 
		Cluster 76 Points 3275 
		Cluster 77 Points 2947 
		Cluster 78 Points 4273 
		Cluster 79 Points 6529 
		Cluster 80 Points 6833 
		Cluster 81 Points 7561 
		Cluster 82 Points 8427 
		Cluster 83 Points 3685 
		Cluster 84 Points 2973 
		Cluster 85 Points 4422 
		Cluster 86 Points 10898 
		Cluster 87 Points 2135 
		Cluster 88 Points 3732 
		Cluster 89 Points 2276 
		Cluster 90 Points 5141 
		Cluster 91 Points 7067 
		Cluster 92 Points 2444 
		Cluster 93 Points 5275 
		Cluster 94 Points 3329 
		Cluster 95 Points 5432 
		Cluster 96 Points 2132 
		Cluster 97 Points 2761 
		Cluster 98 Points 4679 
		Cluster 99 Points 2198 
		Cluster 100 Points 5810 


